<svg width="32" height="32" viewBox="0 0 32 32" fill="none" xmlns="http://www.w3.org/2000/svg">
<path d="M6.00009 15.9999H26.0001" stroke="#0061E4" stroke-width="3" stroke-linecap="round" stroke-linejoin="round"/>
<path d="M18.0001 6.99997L26.0001 16L18.0001 25" stroke="#0061E4" stroke-width="3" stroke-linecap="round" stroke-linejoin="round"/>
</svg>
